\relax 
\babel@aux{english}{}
\@writefile{toc}{\contentsline {chapter}{\numberline {1}Introduction to Time Series}{3}\protected@file@percent }
\@writefile{lof}{\addvspace {10\p@ }}
\@writefile{lot}{\addvspace {10\p@ }}
\@writefile{toc}{\contentsline {section}{\numberline {1.1}Stochastic Processes}{3}\protected@file@percent }
\@writefile{toc}{\contentsline {section}{\numberline {1.2}Stationarity and Strict Stationarity}{5}\protected@file@percent }
\@writefile{toc}{\contentsline {section}{\numberline {1.3}Linear Transformations of Processes}{8}\protected@file@percent }
\@writefile{toc}{\contentsline {chapter}{\numberline {2}ARMA Processes}{11}\protected@file@percent }
\@writefile{lof}{\addvspace {10\p@ }}
\@writefile{lot}{\addvspace {10\p@ }}
\@writefile{toc}{\contentsline {section}{\numberline {2.1}MA Processes}{11}\protected@file@percent }
\@writefile{toc}{\contentsline {section}{\numberline {2.2}Spectral Density}{14}\protected@file@percent }
\@writefile{toc}{\contentsline {section}{\numberline {2.3}AR Processes}{18}\protected@file@percent }
\@writefile{lof}{\contentsline {figure}{\numberline {2.1}{\ignorespaces An explosive AR(1) process.}}{21}\protected@file@percent }
\@writefile{toc}{\contentsline {section}{\numberline {2.4}ARMA Processes}{30}\protected@file@percent }
\@writefile{toc}{\contentsline {chapter}{\numberline {3}Estimation}{33}\protected@file@percent }
\@writefile{lof}{\addvspace {10\p@ }}
\@writefile{lot}{\addvspace {10\p@ }}
\@writefile{toc}{\contentsline {section}{\numberline {3.1}Asymptotic Theory}{33}\protected@file@percent }
\@writefile{toc}{\contentsline {section}{\numberline {3.2}Quasi-Maximum Likelihood Estimator}{39}\protected@file@percent }
\@writefile{toc}{\contentsline {section}{\numberline {3.3}Selection of Lags}{42}\protected@file@percent }
\@writefile{toc}{\contentsline {section}{\numberline {3.4}Diagnostic Tests}{42}\protected@file@percent }
\@writefile{toc}{\contentsline {chapter}{\numberline {4}Non-Stationary Processes}{45}\protected@file@percent }
\@writefile{lof}{\addvspace {10\p@ }}
\@writefile{lot}{\addvspace {10\p@ }}
\@writefile{toc}{\contentsline {section}{\numberline {4.1}The Dickey and Fuller Test}{46}\protected@file@percent }
\@writefile{toc}{\contentsline {section}{\numberline {4.2}Brownian Processes}{47}\protected@file@percent }
\@writefile{toc}{\contentsline {section}{\numberline {4.3}The Functional CLT}{47}\protected@file@percent }
\@writefile{toc}{\contentsline {chapter}{\numberline {5}Panel Data}{51}\protected@file@percent }
\@writefile{lof}{\addvspace {10\p@ }}
\@writefile{lot}{\addvspace {10\p@ }}
\@writefile{toc}{\contentsline {section}{\numberline {5.1}Fixed Effects}{51}\protected@file@percent }
\@writefile{toc}{\contentsline {section}{\numberline {5.2}Random Effects}{51}\protected@file@percent }
\@writefile{toc}{\contentsline {chapter}{\numberline {6}Volatility Models}{53}\protected@file@percent }
\@writefile{lof}{\addvspace {10\p@ }}
\@writefile{lot}{\addvspace {10\p@ }}
\@writefile{toc}{\contentsline {section}{\numberline {6.1}Filters}{53}\protected@file@percent }
\@writefile{toc}{\contentsline {section}{\numberline {6.2}The ARCH and GARCH Model}{53}\protected@file@percent }
\@writefile{toc}{\contentsline {section}{\numberline {6.3}Forecasting and Diagnostic Checks}{54}\protected@file@percent }
\@writefile{toc}{\contentsline {chapter}{\numberline {7}Further Topics}{55}\protected@file@percent }
\@writefile{lof}{\addvspace {10\p@ }}
\@writefile{lot}{\addvspace {10\p@ }}
\@writefile{toc}{\contentsline {section}{\numberline {7.1}Vector ARMA processes (VARMA)}{55}\protected@file@percent }
\@writefile{toc}{\contentsline {subsection}{\numberline {7.1.1}Estimation of VAR(p)}{57}\protected@file@percent }
\@writefile{toc}{\contentsline {section}{\numberline {7.2}Granger Causality}{58}\protected@file@percent }
\@writefile{toc}{\contentsline {section}{\numberline {7.3}Impulse-Responses}{58}\protected@file@percent }
\@writefile{toc}{\contentsline {section}{\numberline {7.4}Co-integration}{60}\protected@file@percent }
