\relax 
\babel@aux{english}{}
\@writefile{toc}{\contentsline {chapter}{\numberline {1}Introduction}{3}\protected@file@percent }
\@writefile{lof}{\addvspace {10\p@ }}
\@writefile{lot}{\addvspace {10\p@ }}
\@writefile{toc}{\contentsline {section}{\numberline {1.1}Introduction: Games with Complete Information}{3}\protected@file@percent }
\@writefile{toc}{\contentsline {subsection}{\numberline {1.1.1}Description}{3}\protected@file@percent }
\@writefile{toc}{\contentsline {subsection}{\numberline {1.1.2}Nash Equilibrium}{4}\protected@file@percent }
\@writefile{toc}{\contentsline {subsection}{\numberline {1.1.3}Games of Imperfect Information}{5}\protected@file@percent }
\@writefile{toc}{\contentsline {section}{\numberline {1.2}Bayesian Equilibrium}{7}\protected@file@percent }
\@writefile{toc}{\contentsline {subsection}{\numberline {1.2.1}Description of Games with incomplete information}{7}\protected@file@percent }
\@writefile{toc}{\contentsline {subsection}{\numberline {1.2.2}Bayesian Equilibrium}{7}\protected@file@percent }
\@writefile{toc}{\contentsline {subsection}{\numberline {1.2.3}Example}{8}\protected@file@percent }
\@writefile{lof}{\contentsline {figure}{\numberline {1.1}{\ignorespaces Comparison of Quantity Functions}}{9}\protected@file@percent }
\newlabel{fig1}{{1.1}{9}}
\@writefile{toc}{\contentsline {subsection}{\numberline {1.2.4}Applications}{9}\protected@file@percent }
\@writefile{toc}{\contentsline {section}{\numberline {1.3}Illustrations}{11}\protected@file@percent }
\@writefile{toc}{\contentsline {subsection}{\numberline {1.3.1}Entry}{11}\protected@file@percent }
\@writefile{toc}{\contentsline {subsection}{\numberline {1.3.2}Public good}{12}\protected@file@percent }
\@writefile{toc}{\contentsline {subsection}{\numberline {1.3.3}War of attrition}{14}\protected@file@percent }
\@writefile{toc}{\contentsline {subsection}{\numberline {1.3.4}Double auction}{15}\protected@file@percent }
\@writefile{toc}{\contentsline {chapter}{\numberline {2}Information Economics}{19}\protected@file@percent }
\@writefile{lof}{\addvspace {10\p@ }}
\@writefile{lot}{\addvspace {10\p@ }}
\@writefile{toc}{\contentsline {section}{\numberline {2.1}Introduction: Arrow-Debreu Economies}{19}\protected@file@percent }
\@writefile{toc}{\contentsline {subsection}{\numberline {2.1.1}Framework}{19}\protected@file@percent }
\@writefile{toc}{\contentsline {subsection}{\numberline {2.1.2}Pareto Efficiency}{19}\protected@file@percent }
\@writefile{lof}{\contentsline {figure}{\numberline {2.1}{\ignorespaces Efficient Allocation in 2-consumer economy}}{20}\protected@file@percent }
\@writefile{toc}{\contentsline {subsection}{\numberline {2.1.3}Competitive Equilibrium}{20}\protected@file@percent }
\@writefile{toc}{\contentsline {subsection}{\numberline {2.1.4}Market Failures}{22}\protected@file@percent }
\@writefile{toc}{\contentsline {section}{\numberline {2.2}Asymmetric Information and Market Failures}{23}\protected@file@percent }
\@writefile{toc}{\contentsline {subsection}{\numberline {2.2.1}The "lemons" problem}{23}\protected@file@percent }
\@writefile{toc}{\contentsline {subsection}{\numberline {2.2.2}Screening}{24}\protected@file@percent }
\@writefile{toc}{\contentsline {subsection}{\numberline {2.2.3}Existence of Equilibrium}{26}\protected@file@percent }
\@writefile{toc}{\contentsline {subsection}{\numberline {2.2.4}Screening vs. Signaling}{28}\protected@file@percent }
\@writefile{toc}{\contentsline {chapter}{\numberline {3}Adverse Selection}{31}\protected@file@percent }
\@writefile{lof}{\addvspace {10\p@ }}
\@writefile{lot}{\addvspace {10\p@ }}
\@writefile{toc}{\contentsline {section}{\numberline {3.1}Introduction}{31}\protected@file@percent }
\@writefile{toc}{\contentsline {section}{\numberline {3.2}Example: Price Discrimination}{32}\protected@file@percent }
\@writefile{toc}{\contentsline {subsection}{\numberline {3.2.1}Equilibrium under Complete Information}{32}\protected@file@percent }
\@writefile{toc}{\contentsline {subsection}{\numberline {3.2.2}Equilibrium under Incomplete Information}{32}\protected@file@percent }
\@writefile{toc}{\contentsline {section}{\numberline {3.3}A More General Treatment}{34}\protected@file@percent }
\@writefile{toc}{\contentsline {subsection}{\numberline {3.3.1}Framework}{34}\protected@file@percent }
\@writefile{toc}{\contentsline {subsection}{\numberline {3.3.2}Implementation}{34}\protected@file@percent }
\@writefile{toc}{\contentsline {subsection}{\numberline {3.3.3}Characterization}{35}\protected@file@percent }
\@writefile{toc}{\contentsline {subsection}{\numberline {3.3.4}Optimization}{37}\protected@file@percent }
\@writefile{toc}{\contentsline {subsection}{\numberline {3.3.5}Applications}{38}\protected@file@percent }
\@writefile{toc}{\contentsline {subsubsection}{Price Discrimination}{38}\protected@file@percent }
\@writefile{toc}{\contentsline {subsubsection}{Regulation}{39}\protected@file@percent }
\@writefile{toc}{\contentsline {subsubsection}{Labor Managed Firm}{39}\protected@file@percent }
\@writefile{toc}{\contentsline {section}{\numberline {3.4}Variations}{39}\protected@file@percent }
\@writefile{toc}{\contentsline {subsection}{\numberline {3.4.1}Multiple outputs}{39}\protected@file@percent }
\@writefile{toc}{\contentsline {subsubsection}{Example}{40}\protected@file@percent }
\@writefile{toc}{\contentsline {subsection}{\numberline {3.4.2}Noisy Observations}{40}\protected@file@percent }
\@writefile{toc}{\contentsline {subsection}{\numberline {3.4.3}Countervailing Incentives}{41}\protected@file@percent }
\@writefile{toc}{\contentsline {section}{\numberline {3.5}Stochastic Contracts}{41}\protected@file@percent }
\@writefile{toc}{\contentsline {section}{\numberline {3.6}Dynamics}{42}\protected@file@percent }
\@writefile{toc}{\contentsline {subsection}{\numberline {3.6.1}Unilateral Renegotiation}{42}\protected@file@percent }
\@writefile{toc}{\contentsline {subsection}{\numberline {3.6.2}Bilateral Renegotiation}{42}\protected@file@percent }
\@writefile{toc}{\contentsline {chapter}{\numberline {4}Moral Hazard}{45}\protected@file@percent }
\@writefile{lof}{\addvspace {10\p@ }}
\@writefile{lot}{\addvspace {10\p@ }}
\@writefile{toc}{\contentsline {section}{\numberline {4.1}Introduction}{45}\protected@file@percent }
\@writefile{toc}{\contentsline {subsection}{\numberline {4.1.1}Efficiency vs. Risk Sharing}{45}\protected@file@percent }
\@writefile{toc}{\contentsline {section}{\numberline {4.2}Valuable Signals}{46}\protected@file@percent }
\@writefile{toc}{\contentsline {section}{\numberline {4.3}Comments}{46}\protected@file@percent }
\@writefile{toc}{\contentsline {subsection}{\numberline {4.3.1}Simple case}{46}\protected@file@percent }
\@writefile{toc}{\contentsline {subsection}{\numberline {4.3.2}Implementability issues}{47}\protected@file@percent }
